{"componentChunkName":"component---node-modules-gatsby-theme-buzzing-src-gatsby-theme-timeline-templates-posts-query-js","path":"/ja/tags/changemyview/page/34","result":{"data":{"site":{"siteMetadata":{"title":"你可以改变我的想法吗？","description":"用中文浏览Reddit-Change My View的热帖","social":[{"name":"Change My View","url":"https://www.reddit.com/r/changemyview/","external":true,"prefetch":null},{"name":"Buzzing","url":"https://www.buzzing.cc/","external":true,"prefetch":null},{"name":"Buzzing","url":"https://www.buzzing.cc/","external":true,"prefetch":null}],"menuLinks":[{"name":"每周精选","url":"/issues","external":null,"prefetch":null}],"localize":[{"locale":"en","title":"Buzzing on Change My View","description":"See what's buzzing on Reddit Change My View Subreddit in your native language","social":{"name":null,"url":null,"external":null,"prefetch":null},"menuLinks":[{"name":"Weekly Selection","url":"/en/issues","external":null,"prefetch":null}]},{"locale":"zh-Hant","title":"你可以改變我的想法嗎？","description":"用中文瀏覽Reddit-Change My View的熱帖","social":{"name":null,"url":null,"external":null,"prefetch":null},"menuLinks":[{"name":"每週精選","url":"/zh-Hant/issues","external":null,"prefetch":null}]},{"locale":"ja","title":"気が変わってもらえますか？","description":"人気のReddit気が変わってもらえますか記事を日本語で閲覧","social":null,"menuLinks":[]}]}},"tagsGroup":{"group":[{"fieldValue":"Design Tools","totalCount":1},{"fieldValue":"ProductHunt","totalCount":1},{"fieldValue":"Youtube","totalCount":1},{"fieldValue":"changemyview","totalCount":832},{"fieldValue":"dankmemes","totalCount":1},{"fieldValue":"reddit","totalCount":833}]},"allBlogPost":{"nodes":[{"id":"RedditPost-b7b0f5c9-414e-5b4d-9808-8492399afcc2","excerpt":"CW: rape\n\nI was reading another post on relationship advice last night. OP is unhappy in\nher marriage, she described how she wanted to stop having sex but her husband\nholds her down and keeps going.\n\nRight, that's rape, and OP needs to understand it's not okay at all so she can\nget out of that…","slug":"/reddit/r/changemyview/comments/kiwhjs/cmv_reddit_is_too_eager_to_tell_people_theyve/","title":"CMV: Reddit is too eager to tell people they've been raped.","date":"December 24, 2020","dateISO":"2020-12-24T05:43:17.000Z","datetime":"2020-12-24 05:43","tags":["changemyview","reddit"],"image":null,"imageAlt":null,"__typename":"SocialMediaPost","provider":"Reddit","thirdPartyId":"b7b0f5c9-414e-5b4d-9808-8492399afcc2","url":"https://www.reddit.com/r/changemyview/comments/kiwhjs/cmv_reddit_is_too_eager_to_tell_people_theyve/","originalUrl":"https://www.reddit.com/r/changemyview/comments/kiwhjs/cmv_reddit_is_too_eager_to_tell_people_theyve/","imageRemote":null,"video":null,"channel":"changemyview","channelUrl":"https://www.reddit.com/r/changemyview","author":"Snorumobiru","authorUrl":"https://www.reddit.com/user/Snorumobiru","authorImage":null,"authorSlug":"Snorumobiru","score":52,"views":null,"sharedCount":null,"likeCount":null,"sharedContent":null,"parent":{"localize":[{"title":"[改变我的想法]：Reddit太急于告诉人们他们被强奸了。","the_new_excerpt":"CW：强奸\n\n昨晚我在看另一篇关于恋爱建议的帖子。操作员在以下方面不高兴\n在她的婚姻中，她描述了她是多么想停止性生活，但她的丈夫\n把她按住，然后继续往前走。\n\n是的，那是强奸，行动人员需要明白这一点都不好，这样她才能\n离开那辆…","locale":"zh"},{"title":"[改变我的想法]：Reddit太急於告訴人們他們被強姦了。","the_new_excerpt":"CW：強姦\n\n昨晚我在看另一篇關於戀愛建議的帖子。操作員在以下方面不高興\n在她的婚姻中，她描述了她是多麼想停止性生活，但她的丈夫\n把她按住，然後繼續往前走。\n\n是的，那是強姦，行動人員需要明白這一點都不好，這樣她才能\n離開那輛…","locale":"zh-Hant"}]}},{"id":"RedditPost-8e81b590-b993-57a2-a67b-2809f25506e4","excerpt":"I'm in my late 20s and I've graduated high school and college and I would say\nthat both were pivotal to me being the person I am currently. However, when I\nlook at pop culture aimed at younger people, it's 90% set in high school, with\nshows like Riverdale, Euphoria, Vampire Diaries, etc. I think…","slug":"/reddit/r/changemyview/comments/kin9bc/cmv_college_is_a_better_setting_than_high_school/","title":"CMV: College is a better setting than high school for television shows.","date":"December 24, 2020","dateISO":"2020-12-24T05:35:05.000Z","datetime":"2020-12-24 05:35","tags":["changemyview","reddit"],"image":null,"imageAlt":null,"__typename":"SocialMediaPost","provider":"Reddit","thirdPartyId":"8e81b590-b993-57a2-a67b-2809f25506e4","url":"https://www.reddit.com/r/changemyview/comments/kin9bc/cmv_college_is_a_better_setting_than_high_school/","originalUrl":"https://www.reddit.com/r/changemyview/comments/kin9bc/cmv_college_is_a_better_setting_than_high_school/","imageRemote":null,"video":null,"channel":"changemyview","channelUrl":"https://www.reddit.com/r/changemyview","author":"parduscat","authorUrl":"https://www.reddit.com/user/parduscat","authorImage":null,"authorSlug":"parduscat","score":4728,"views":null,"sharedCount":null,"likeCount":null,"sharedContent":null,"parent":{"localize":[{"title":"[改变我的想法]：大学比高中更适合制作电视节目。","the_new_excerpt":"我快30岁了，高中和大学毕业，我会说\n这两个都是我成为现在的我的关键。但是，当我\n看看针对年轻人的流行文化，90%都是以高中为背景的，\n像“河谷”、“欣快感”、“吸血鬼日记”等，我觉得…","locale":"zh"},{"title":"[改变我的想法]：大學比高中更適合製作電視節目。","the_new_excerpt":"我快30歲了，高中和大學畢業，我會說\n這兩個都是我成爲現在的我的關鍵。但是，當我\n看看針對年輕人的流行文化，90%都是以高中爲背景的，\n像“河谷”、“欣快感”、“吸血鬼日記”等，我覺得…","locale":"zh-Hant"}]}},{"id":"RedditPost-a51c8d4f-4593-53b7-b7c8-46d9258b8e34","excerpt":"At best they would be a performer, and if they lip sync then they're not a\nperformer, they're an entertainer. I just hate that people put people on\npedestals when they really didn't do anything. This goes for most pop artists,\nand a lot of rappers. Especially Kpop, if you dont know about that…","slug":"/reddit/r/changemyview/comments/kio2o4/cmv_if_an_artist_doesnt_write_or_produce_their/","title":"CMV: If an \"artist\" doesn't write or produce their music, they're not an artist.","date":"December 24, 2020","dateISO":"2020-12-24T05:35:05.000Z","datetime":"2020-12-24 05:35","tags":["changemyview","reddit"],"image":null,"imageAlt":null,"__typename":"SocialMediaPost","provider":"Reddit","thirdPartyId":"a51c8d4f-4593-53b7-b7c8-46d9258b8e34","url":"https://www.reddit.com/r/changemyview/comments/kio2o4/cmv_if_an_artist_doesnt_write_or_produce_their/","originalUrl":"https://www.reddit.com/r/changemyview/comments/kio2o4/cmv_if_an_artist_doesnt_write_or_produce_their/","imageRemote":null,"video":null,"channel":"changemyview","channelUrl":"https://www.reddit.com/r/changemyview","author":"MostlyLeg","authorUrl":"https://www.reddit.com/user/MostlyLeg","authorImage":null,"authorSlug":"MostlyLeg","score":100,"views":null,"sharedCount":null,"likeCount":null,"sharedContent":null,"parent":{"localize":[{"title":"[改变我的想法]：如果一个“艺术家”不创作或制作他们的音乐，他们就不是艺术家。","the_new_excerpt":"充其量他们只能是个表演者，如果他们假唱，那他们就不是\n表演者，他们是个艺人。我只是讨厌人们把人放在\n当他们真的什么都没做的时候。这对大多数流行艺术家来说都是如此，\n还有很多说唱歌手。尤其是韩国流行音乐，如果你不知道那个…的话","locale":"zh"},{"title":"[改变我的想法]：如果一個“藝術家”不創作或製作他們的音樂，他們就不是藝術家。","the_new_excerpt":"充其量他們只能是個表演者，如果他們假唱，那他們就不是\n表演者，他們是個藝人。我只是討厭人們把人放在\n當他們真的什麼都沒做的時候。這對大多數流行藝術家來說都是如此，\n還有很多說唱歌手。尤其是韓國流行音樂，如果你不知道那個…的話","locale":"zh-Hant"}]}},{"id":"RedditPost-48d3150f-d42c-5059-bfda-2d8e38e827dc","excerpt":"Though this would be a major constitutional change, the pardon system has been\nabused by both Democrats and Republicans, so a bipartisan solution under an\nincoming Democratic administration should be taken up and passed.\n\nWhen a president of either party becomes a lame duck, there is nothing…","slug":"/reddit/r/changemyview/comments/kiry0u/cmv_i_believe_the_power_of_a_us_president_to/","title":"CMV: I believe the power of a US President to issue a pardon should be terminated at least 2 days before the presidential election.","date":"December 24, 2020","dateISO":"2020-12-24T05:35:05.000Z","datetime":"2020-12-24 05:35","tags":["changemyview","reddit"],"image":null,"imageAlt":null,"__typename":"SocialMediaPost","provider":"Reddit","thirdPartyId":"48d3150f-d42c-5059-bfda-2d8e38e827dc","url":"https://www.reddit.com/r/changemyview/comments/kiry0u/cmv_i_believe_the_power_of_a_us_president_to/","originalUrl":"https://www.reddit.com/r/changemyview/comments/kiry0u/cmv_i_believe_the_power_of_a_us_president_to/","imageRemote":null,"video":null,"channel":"changemyview","channelUrl":"https://www.reddit.com/r/changemyview","author":"All_I_Want_IsA_Pepsi","authorUrl":"https://www.reddit.com/user/All_I_Want_IsA_Pepsi","authorImage":null,"authorSlug":"All_I_Want_IsA_Pepsi","score":1177,"views":null,"sharedCount":null,"likeCount":null,"sharedContent":null,"parent":{"localize":[{"title":"[改变我的想法]：我认为美国总统发布赦免的权力应该在总统选举前至少两天终止。","the_new_excerpt":"虽然这将是一项重大的宪法修改，但赦免制度一直是\n被民主党人和共和党人滥用，所以在一个\n即将上任的民主党政府应该接受并通过。\n\n当任一党的总统变成跛脚鸭时，就没有什么…了","locale":"zh"},{"title":"[改变我的想法]：我認爲美國總統發佈赦免的權力應該在總統選舉前至少兩天終止。","the_new_excerpt":"雖然這將是一項重大的憲法修改，但赦免制度一直是\n被民主黨人和共和黨人濫用，所以在一個\n即將上任的民主黨政府應該接受並通過。\n\n當任一黨的總統變成跛腳鴨時，就沒有什麼…了","locale":"zh-Hant"}]}},{"id":"RedditPost-aa14ff9d-3e5b-5ae5-ba6e-d8e84a9d7240","excerpt":"Trump & Co claim this election was \"stolen\" by Biden, but have so far presented\nonly spurious evidence to back this up. Many of his claims are so patently wrong\n[https://www.reuters.com/article/uk-factcheck-milwaukee-detroit-lansing-p/fact-check-posts-claiming-more-votes-than-residents-in-milwaukee…","slug":"/reddit/r/changemyview/comments/kiuv0j/cmv_there_is_no_evidence_of_widespread_fraud_in/","title":"CMV: there is no evidence of widespread fraud in the 2020 US Presidential election","date":"December 24, 2020","dateISO":"2020-12-24T05:35:05.000Z","datetime":"2020-12-24 05:35","tags":["changemyview","reddit"],"image":null,"imageAlt":null,"__typename":"SocialMediaPost","provider":"Reddit","thirdPartyId":"aa14ff9d-3e5b-5ae5-ba6e-d8e84a9d7240","url":"https://www.reddit.com/r/changemyview/comments/kiuv0j/cmv_there_is_no_evidence_of_widespread_fraud_in/","originalUrl":"https://www.reddit.com/r/changemyview/comments/kiuv0j/cmv_there_is_no_evidence_of_widespread_fraud_in/","imageRemote":null,"video":null,"channel":"changemyview","channelUrl":"https://www.reddit.com/r/changemyview","author":"armadillo66666","authorUrl":"https://www.reddit.com/user/armadillo66666","authorImage":null,"authorSlug":"armadillo66666","score":108,"views":null,"sharedCount":null,"likeCount":null,"sharedContent":null,"parent":{"localize":[{"title":"[改变我的想法]：没有证据显示2020年美国总统选举存在普遍舞弊","the_new_excerpt":"Trump&Co声称这次选举被拜登“窃取”，但到目前为止\n只有虚假的证据来支持这一点。他的许多说法显然是错误的\n[https://www.reuters.com/article/uk-factcheck-milwaukee-detroit-lansing-p/fact-check-posts-claiming-more-votes-than-residents-in-milwaukee…","locale":"zh"},{"title":"[改变我的想法]：沒有證據顯示2020年美國總統選舉存在普遍舞弊","the_new_excerpt":"Trump&Co聲稱這次選舉被拜登“竊取”，但到目前爲止\n只有虛假的證據來支持這一點。他的許多說法顯然是錯誤的\n[https://www.reuters.com/article/uk-factcheck-milwaukee-detroit-lansing-p/fact-check-posts-claiming-more-votes-than-residents-in-milwaukee…","locale":"zh-Hant"}]}},{"id":"RedditPost-4043e446-4292-514c-8b8f-a50f970be22b","excerpt":"What I mean when I say “people who hate happy holidays”: People who complain\nvocally or online about how the phrase ‘Happy Holidays’ is bad in any way.\nOften, they are upset that ‘Happy Holidays’ diminishes their tradition or\nreligion.\n\nWhat I mean when I say “people who hate merry christmas”:…","slug":"/reddit/r/changemyview/comments/kj0dzd/cmv_people_who_hate_happy_holidays_are_more/","title":"CMV: People who hate 'Happy Holidays' are more numerous and annoying than people who hate 'Merry Christmas'","date":"December 24, 2020","dateISO":"2020-12-24T05:35:05.000Z","datetime":"2020-12-24 05:35","tags":["changemyview","reddit"],"image":null,"imageAlt":null,"__typename":"SocialMediaPost","provider":"Reddit","thirdPartyId":"4043e446-4292-514c-8b8f-a50f970be22b","url":"https://www.reddit.com/r/changemyview/comments/kj0dzd/cmv_people_who_hate_happy_holidays_are_more/","originalUrl":"https://www.reddit.com/r/changemyview/comments/kj0dzd/cmv_people_who_hate_happy_holidays_are_more/","imageRemote":null,"video":null,"channel":"changemyview","channelUrl":"https://www.reddit.com/r/changemyview","author":"rocking_ape_binder","authorUrl":"https://www.reddit.com/user/rocking_ape_binder","authorImage":null,"authorSlug":"rocking_ape_binder","score":130,"views":null,"sharedCount":null,"likeCount":null,"sharedContent":null,"parent":{"localize":[{"title":"[改变我的想法]：讨厌“节日快乐”的人比讨厌“圣诞快乐”的人多得多，也更烦人。","the_new_excerpt":"当我说“讨厌欢乐节日的人”时，我的意思是：抱怨的人\n无论是在口头上还是在网上谈论“节日快乐”这句话在任何方面都是不好的。\n通常，他们会因为“节日快乐”削弱了他们的传统而心烦意乱，或者\n宗教信仰。\n\n我说“讨厌圣诞快乐的人”的意思是：…","locale":"zh"},{"title":"[改变我的想法]：討厭“節日快樂”的人比討厭“聖誕快樂”的人多得多，也更煩人。","the_new_excerpt":"當我說“討厭歡樂節日的人”時，我的意思是：抱怨的人\n無論是在口頭上還是在網上談論“節日快樂”這句話在任何方面都是不好的。\n通常，他們會因爲“節日快樂”削弱了他們的傳統而心煩意亂，或者\n宗教信仰。\n\n我說“討厭聖誕快樂的人”的意思是：…","locale":"zh-Hant"}]}},{"id":"RedditPost-3fa6778d-6e82-5710-be6c-79a9c6726e0e","excerpt":"EDIT- Just got my first ever death threat. I'll quote from my DM.\n\n\"You may think you're safe behind a keyboard but remember what happened to the\nCharlie Dubois cartoonist in france\"\n\nLovely.\n\n------‐-------------------------\n\nI've had to post this here because every where I go Muslims shut me down…","slug":"/reddit/r/changemyview/comments/kj0wa0/cmv_islam_is_not_a_feminist_religion_not_even/","title":"CMV: Islam is not a feminist religion. Not even close","date":"December 24, 2020","dateISO":"2020-12-24T05:35:05.000Z","datetime":"2020-12-24 05:35","tags":["changemyview","reddit"],"image":null,"imageAlt":null,"__typename":"SocialMediaPost","provider":"Reddit","thirdPartyId":"3fa6778d-6e82-5710-be6c-79a9c6726e0e","url":"https://www.reddit.com/r/changemyview/comments/kj0wa0/cmv_islam_is_not_a_feminist_religion_not_even/","originalUrl":"https://www.reddit.com/r/changemyview/comments/kj0wa0/cmv_islam_is_not_a_feminist_religion_not_even/","imageRemote":null,"video":null,"channel":"changemyview","channelUrl":"https://www.reddit.com/r/changemyview","author":"Thundertkmr","authorUrl":"https://www.reddit.com/user/Thundertkmr","authorImage":null,"authorSlug":"Thundertkmr","score":3748,"views":null,"sharedCount":null,"likeCount":null,"sharedContent":null,"parent":{"localize":[{"title":"[改变我的想法]：伊斯兰教不是女权主义宗教。一点也不接近","the_new_excerpt":"编辑-刚刚收到了我的第一个死亡威胁。我会引用我的DM的话。\n\n“您可能认为在键盘后面是安全的，但请记住\n查理·杜布瓦在法国的漫画家“\n\n可爱的。\n\n\n\n我不得不把这个贴在这里，因为我每到一个地方穆斯林都会关闭我的…","locale":"zh"},{"title":"[改变我的想法]：伊斯蘭教不是女權主義宗教。一點也不接近","the_new_excerpt":"編輯-剛剛收到了我的第一個死亡威脅。我會引用我的DM的話。\n\n“您可能認爲在鍵盤後面是安全的，但請記住\n查理·杜布瓦在法國的漫畫家“\n\n可愛的。\n\n\n\n我不得不把這個貼在這裏，因爲我每到一個地方穆斯林都會關閉我的…","locale":"zh-Hant"}]}}]}},"pageContext":{"basePath":"/","pageType":"tag","tag":"changemyview","tagsFilter":{"id":{"glob":"!*Post-1"}},"filter":{"id":{"glob":"!*Post-1"},"tags":{"eq":"changemyview"}},"limit":25,"skip":825,"total":832,"totalPages":34,"currentPage":34,"maxWidth":1024,"maxHeight":512,"locale":"ja","hrefLang":"ja-JA","originalPath":"/tags/changemyview/page/34","dateFormat":"YYYY-MM-DD"}},"staticQueryHashes":["1239077767","2506312863","2744905544","3025052997","3280999885","3948070931","68699025"]}