{"componentChunkName":"component---node-modules-gatsby-theme-buzzing-src-gatsby-theme-timeline-templates-posts-query-js","path":"/zh-Hant/tags/reddit/page/35","result":{"data":{"site":{"siteMetadata":{"title":"你可以改变我的想法吗？","description":"用中文浏览Reddit-Change My View的热帖","social":[{"name":"Change My View","url":"https://www.reddit.com/r/changemyview/","external":true,"prefetch":null},{"name":"Buzzing","url":"https://www.buzzing.cc/","external":true,"prefetch":null},{"name":"Buzzing","url":"https://www.buzzing.cc/","external":true,"prefetch":null}],"menuLinks":[{"name":"每周精选","url":"/issues","external":null,"prefetch":null}],"localize":[{"locale":"en","title":"Buzzing on Change My View","description":"See what's buzzing on Reddit Change My View Subreddit in your native language","social":{"name":null,"url":null,"external":null,"prefetch":null},"menuLinks":[{"name":"Weekly Selection","url":"/en/issues","external":null,"prefetch":null}]},{"locale":"zh-Hant","title":"你可以改變我的想法嗎？","description":"用中文瀏覽Reddit-Change My View的熱帖","social":{"name":null,"url":null,"external":null,"prefetch":null},"menuLinks":[{"name":"每週精選","url":"/zh-Hant/issues","external":null,"prefetch":null}]},{"locale":"ja","title":"気が変わってもらえますか？","description":"人気のReddit気が変わってもらえますか記事を日本語で閲覧","social":null,"menuLinks":[]}]}},"tagsGroup":{"group":[{"fieldValue":"Design Tools","totalCount":1},{"fieldValue":"ProductHunt","totalCount":1},{"fieldValue":"Youtube","totalCount":1},{"fieldValue":"changemyview","totalCount":853},{"fieldValue":"dankmemes","totalCount":1},{"fieldValue":"reddit","totalCount":854}]},"allBlogPost":{"nodes":[{"id":"RedditPost-aa14ff9d-3e5b-5ae5-ba6e-d8e84a9d7240","excerpt":"Trump & Co claim this election was \"stolen\" by Biden, but have so far presented\nonly spurious evidence to back this up. Many of his claims are so patently wrong\n[https://www.reuters.com/article/uk-factcheck-milwaukee-detroit-lansing-p/fact-check-posts-claiming-more-votes-than-residents-in-milwaukee…","slug":"/reddit/r/changemyview/comments/kiuv0j/cmv_there_is_no_evidence_of_widespread_fraud_in/","title":"CMV: there is no evidence of widespread fraud in the 2020 US Presidential election","date":"December 24, 2020","dateISO":"2020-12-24T05:35:05.000Z","datetime":"2020-12-24 05:35","tags":["changemyview","reddit"],"image":null,"imageAlt":null,"__typename":"SocialMediaPost","provider":"Reddit","thirdPartyId":"aa14ff9d-3e5b-5ae5-ba6e-d8e84a9d7240","url":"https://www.reddit.com/r/changemyview/comments/kiuv0j/cmv_there_is_no_evidence_of_widespread_fraud_in/","originalUrl":"https://www.reddit.com/r/changemyview/comments/kiuv0j/cmv_there_is_no_evidence_of_widespread_fraud_in/","imageRemote":null,"video":null,"channel":"changemyview","channelUrl":"https://www.reddit.com/r/changemyview","author":"armadillo66666","authorUrl":"https://www.reddit.com/user/armadillo66666","authorImage":null,"authorSlug":"armadillo66666","score":108,"views":null,"sharedCount":null,"likeCount":null,"sharedContent":null,"parent":{"localize":[{"title":"[改变我的想法]：没有证据显示2020年美国总统选举存在普遍舞弊","the_new_excerpt":"Trump&Co声称这次选举被拜登“窃取”，但到目前为止\n只有虚假的证据来支持这一点。他的许多说法显然是错误的\n[https://www.reuters.com/article/uk-factcheck-milwaukee-detroit-lansing-p/fact-check-posts-claiming-more-votes-than-residents-in-milwaukee…","locale":"zh"},{"title":"[改变我的想法]：沒有證據顯示2020年美國總統選舉存在普遍舞弊","the_new_excerpt":"Trump&Co聲稱這次選舉被拜登“竊取”，但到目前爲止\n只有虛假的證據來支持這一點。他的許多說法顯然是錯誤的\n[https://www.reuters.com/article/uk-factcheck-milwaukee-detroit-lansing-p/fact-check-posts-claiming-more-votes-than-residents-in-milwaukee…","locale":"zh-Hant"}]}},{"id":"RedditPost-4043e446-4292-514c-8b8f-a50f970be22b","excerpt":"What I mean when I say “people who hate happy holidays”: People who complain\nvocally or online about how the phrase ‘Happy Holidays’ is bad in any way.\nOften, they are upset that ‘Happy Holidays’ diminishes their tradition or\nreligion.\n\nWhat I mean when I say “people who hate merry christmas”:…","slug":"/reddit/r/changemyview/comments/kj0dzd/cmv_people_who_hate_happy_holidays_are_more/","title":"CMV: People who hate 'Happy Holidays' are more numerous and annoying than people who hate 'Merry Christmas'","date":"December 24, 2020","dateISO":"2020-12-24T05:35:05.000Z","datetime":"2020-12-24 05:35","tags":["changemyview","reddit"],"image":null,"imageAlt":null,"__typename":"SocialMediaPost","provider":"Reddit","thirdPartyId":"4043e446-4292-514c-8b8f-a50f970be22b","url":"https://www.reddit.com/r/changemyview/comments/kj0dzd/cmv_people_who_hate_happy_holidays_are_more/","originalUrl":"https://www.reddit.com/r/changemyview/comments/kj0dzd/cmv_people_who_hate_happy_holidays_are_more/","imageRemote":null,"video":null,"channel":"changemyview","channelUrl":"https://www.reddit.com/r/changemyview","author":"rocking_ape_binder","authorUrl":"https://www.reddit.com/user/rocking_ape_binder","authorImage":null,"authorSlug":"rocking_ape_binder","score":130,"views":null,"sharedCount":null,"likeCount":null,"sharedContent":null,"parent":{"localize":[{"title":"[改变我的想法]：讨厌“节日快乐”的人比讨厌“圣诞快乐”的人多得多，也更烦人。","the_new_excerpt":"当我说“讨厌欢乐节日的人”时，我的意思是：抱怨的人\n无论是在口头上还是在网上谈论“节日快乐”这句话在任何方面都是不好的。\n通常，他们会因为“节日快乐”削弱了他们的传统而心烦意乱，或者\n宗教信仰。\n\n我说“讨厌圣诞快乐的人”的意思是：…","locale":"zh"},{"title":"[改变我的想法]：討厭“節日快樂”的人比討厭“聖誕快樂”的人多得多，也更煩人。","the_new_excerpt":"當我說“討厭歡樂節日的人”時，我的意思是：抱怨的人\n無論是在口頭上還是在網上談論“節日快樂”這句話在任何方面都是不好的。\n通常，他們會因爲“節日快樂”削弱了他們的傳統而心煩意亂，或者\n宗教信仰。\n\n我說“討厭聖誕快樂的人”的意思是：…","locale":"zh-Hant"}]}},{"id":"RedditPost-3fa6778d-6e82-5710-be6c-79a9c6726e0e","excerpt":"EDIT- Just got my first ever death threat. I'll quote from my DM.\n\n\"You may think you're safe behind a keyboard but remember what happened to the\nCharlie Dubois cartoonist in france\"\n\nLovely.\n\n------‐-------------------------\n\nI've had to post this here because every where I go Muslims shut me down…","slug":"/reddit/r/changemyview/comments/kj0wa0/cmv_islam_is_not_a_feminist_religion_not_even/","title":"CMV: Islam is not a feminist religion. Not even close","date":"December 24, 2020","dateISO":"2020-12-24T05:35:05.000Z","datetime":"2020-12-24 05:35","tags":["changemyview","reddit"],"image":null,"imageAlt":null,"__typename":"SocialMediaPost","provider":"Reddit","thirdPartyId":"3fa6778d-6e82-5710-be6c-79a9c6726e0e","url":"https://www.reddit.com/r/changemyview/comments/kj0wa0/cmv_islam_is_not_a_feminist_religion_not_even/","originalUrl":"https://www.reddit.com/r/changemyview/comments/kj0wa0/cmv_islam_is_not_a_feminist_religion_not_even/","imageRemote":null,"video":null,"channel":"changemyview","channelUrl":"https://www.reddit.com/r/changemyview","author":"Thundertkmr","authorUrl":"https://www.reddit.com/user/Thundertkmr","authorImage":null,"authorSlug":"Thundertkmr","score":3748,"views":null,"sharedCount":null,"likeCount":null,"sharedContent":null,"parent":{"localize":[{"title":"[改变我的想法]：伊斯兰教不是女权主义宗教。一点也不接近","the_new_excerpt":"编辑-刚刚收到了我的第一个死亡威胁。我会引用我的DM的话。\n\n“您可能认为在键盘后面是安全的，但请记住\n查理·杜布瓦在法国的漫画家“\n\n可爱的。\n\n\n\n我不得不把这个贴在这里，因为我每到一个地方穆斯林都会关闭我的…","locale":"zh"},{"title":"[改变我的想法]：伊斯蘭教不是女權主義宗教。一點也不接近","the_new_excerpt":"編輯-剛剛收到了我的第一個死亡威脅。我會引用我的DM的話。\n\n“您可能認爲在鍵盤後面是安全的，但請記住\n查理·杜布瓦在法國的漫畫家“\n\n可愛的。\n\n\n\n我不得不把這個貼在這裏，因爲我每到一個地方穆斯林都會關閉我的…","locale":"zh-Hant"}]}},{"id":"RedditPost-4ca87448-e499-5480-ac90-9fabcbe5eed6","excerpt":"","slug":"/reddit/r/dankmemes/comments/kc0vb6/i_tried_my_best/","title":"I tried my best","date":"January 01, 1970","dateISO":"1970-01-01T00:00:01.000Z","datetime":"1970-01-01 00:00","tags":["dankmemes","reddit"],"image":null,"imageAlt":null,"__typename":"SocialMediaPost","provider":"Reddit","thirdPartyId":"4ca87448-e499-5480-ac90-9fabcbe5eed6","url":"https://www.reddit.com/r/dankmemes/comments/kc0vb6/i_tried_my_best/","originalUrl":"https://www.reddit.com/r/dankmemes/comments/kc0vb6/i_tried_my_best/","imageRemote":null,"video":{"url":"https://preview.redd.it/tmioy3ppqu461.gif?format=mp4&s=eee315f2afbf0b103ca25cb56dab4ca7ca9c7f77","embed":null,"width":530,"height":478},"channel":"dankmemes","channelUrl":"https://www.reddit.com/r/dankmemes","author":"tig02345","authorUrl":"https://www.reddit.com/user/tig02345","authorImage":null,"authorSlug":"tig02345","score":93756,"views":null,"sharedCount":null,"likeCount":null,"sharedContent":null,"parent":{"localize":[{"title":"我尽力了","the_new_excerpt":"test","locale":"zh"},{"title":"我盡力了","the_new_excerpt":"test","locale":"zh-Hant"}]}}]}},"pageContext":{"basePath":"/","pageType":"tag","tag":"reddit","tagsFilter":{"id":{"glob":"!*Post-1"}},"filter":{"id":{"glob":"!*Post-1"},"tags":{"eq":"reddit"}},"limit":25,"skip":850,"total":854,"totalPages":35,"currentPage":35,"maxWidth":1024,"maxHeight":512,"locale":"zh-Hant","hrefLang":"zh-Hant","originalPath":"/tags/reddit/page/35","dateFormat":"YYYY-MM-DD"}},"staticQueryHashes":["1239077767","2506312863","2744905544","3025052997","3280999885","3948070931","68699025"]}