{"componentChunkName":"component---node-modules-gatsby-theme-buzzing-src-gatsby-theme-timeline-templates-posts-query-js","path":"/ja/page/9","result":{"data":{"site":{"siteMetadata":{"title":"你可以改变我的想法吗？","author":"Buzzing.cc","description":"用中文浏览Reddit-Change My View的热帖","keywords":["buzzing","改变我的想法","reddit"],"siteUrl":"https://changemyview.buzzing.cc","telegram":"@buzzingcc","iconUrl":"https://changemyview.buzzing.cc/avatar.jpg","defaultSocialImageUrl":null,"social":[{"name":"Change My View","url":"https://www.reddit.com/r/changemyview/","external":true},{"name":"Buzzing","url":"https://www.buzzing.cc/","external":true},{"name":"Buzzing","url":"https://www.buzzing.cc/","external":true}],"menuLinks":[{"name":"每周精选","url":"/issues","external":null}],"disqus":null,"utterances":null}},"tagsGroup":{"group":[{"fieldValue":"changemyview","totalCount":404},{"fieldValue":"reddit","totalCount":404}]},"allBlogPost":{"nodes":[{"id":"RedditPost-5b17b8ea-af5a-5e8b-aeb0-02e72370091e","excerpt":"I know that's a polarised topic. And i don't really want to discuss about\natheism / theism in general. However, i have had many discussions with friends\nabout religion in the past. I am an atheist (i think it fits my mindset best).\nAfter some time of arguing wether religions are good or bad in…","slug":"/reddit/r/changemyview/comments/n2k3f2/cmv_moral_and_humanity_can_exist_entirely_without/","title":"cmv: Moral and humanity can exist entirely without religion.","date":"May 01, 2021","dateISO":"2021-05-01T17:34:07.000Z","datetime":"2021-05-01 17:34","tags":["changemyview","reddit"],"image":null,"imageAlt":null,"__typename":"SocialMediaPost","provider":"Reddit","thirdPartyId":"5b17b8ea-af5a-5e8b-aeb0-02e72370091e","url":"https://www.reddit.com/r/changemyview/comments/n2k3f2/cmv_moral_and_humanity_can_exist_entirely_without/","originalUrl":"https://www.reddit.com/r/changemyview/comments/n2k3f2/cmv_moral_and_humanity_can_exist_entirely_without/","imageRemote":null,"video":null,"channel":"changemyview","channelUrl":"https://www.reddit.com/r/changemyview","author":"Markenbier","authorUrl":"https://www.reddit.com/user/Markenbier","authorImageRemote":null,"authorImage":null,"authorSlug":"Markenbier","score":51,"views":null,"sharedCount":null,"likeCount":null,"sharedContent":null,"parent":{"localize":[{"title":"cmv。モラルや人間性は、宗教がなくても完全に存在することができます。","the_new_excerpt":"話題が二極化しているのはわかっています。そして、私は無神論／神道一般について議論したいとは思いません。\n一般的な無神論/神道については議論したくありません。しかし、私は過去に友人と宗教について多くの議論をしてきました。\n議論してきました。私は無神論者です（自分の考え方に一番合っていると思っています）。\n私は無神論者です。","locale":"ja"},{"title":"cmv: 道德和人性完全可以没有宗教而存在。","the_new_excerpt":"我知道这是个两极化的话题。我真的不想讨论这个问题。\n无神论/有神论的一般问题。然而，我过去曾与朋友们讨论过很多\n关于宗教。我是一个无神论者（我认为这最符合我的心态）。\n经过一段时间的争论，宗教是好是坏？","locale":"zh"},{"title":"cmv: 道德和人性完全可以沒有宗教而存在。","the_new_excerpt":"我知道這是個兩極化的話題。我真的不想討論這個問題。\n無神論/有神論的一般問題。然而，我過去曾與朋友們討論過很多\n關於宗教。我是一個無神論者（我認爲這最符合我的心態）。\n經過一段時間的爭論，宗教是好是壞？","locale":"zh-Hant"}]}},{"id":"RedditPost-e481047a-4cc6-5079-afa1-72aa8e97a79a","excerpt":"Not sure that my title sufficiently states my case clearly enough cos I don't\nfeel like I can put this into a single sentence, so I'll explain my standpoint\nhere.\n\nIt's a fairly common viewpoint. I believe that saying \"not all men\" is just a\nnatural response to statements like \"all men are trash\".…","slug":"/reddit/r/changemyview/comments/n2gtva/cmv_not_all_men_is_an_appropriate_response_to/","title":"CMV: \"Not all men\" is an appropriate response to arguments trying paint all men as violent","date":"May 01, 2021","dateISO":"2021-05-01T15:43:28.000Z","datetime":"2021-05-01 15:43","tags":["changemyview","reddit"],"image":null,"imageAlt":null,"__typename":"SocialMediaPost","provider":"Reddit","thirdPartyId":"e481047a-4cc6-5079-afa1-72aa8e97a79a","url":"https://www.reddit.com/r/changemyview/comments/n2gtva/cmv_not_all_men_is_an_appropriate_response_to/","originalUrl":"https://www.reddit.com/r/changemyview/comments/n2gtva/cmv_not_all_men_is_an_appropriate_response_to/","imageRemote":null,"video":null,"channel":"changemyview","channelUrl":"https://www.reddit.com/r/changemyview","author":"UncomfortablePrawn","authorUrl":"https://www.reddit.com/user/UncomfortablePrawn","authorImageRemote":null,"authorImage":null,"authorSlug":"UncomfortablePrawn","score":67,"views":null,"sharedCount":null,"likeCount":null,"sharedContent":null,"parent":{"localize":[{"title":"CMV: 「すべての男性が暴力的ではない」というのは、男性全体を暴力的に描こうとする議論に対する適切な答えです。","the_new_excerpt":"私のタイトルが私の主張を十分に表現しているとは思えません。\n一言では言い表せないので、ここで私の立場を説明します。\nここでは\n\nかなり一般的な視点だと思います。全ての男性ではない」というのは、「全ての男性」という言葉に対する自然な反応だと思います。\n男はみんなゴミ」.... のような発言に対する自然な反応だと思います。","locale":"ja"},{"title":"CMV：\"不是所有男人 \"是对试图将所有男人描绘成暴力的论点的适当回应","the_new_excerpt":"我不确定我的标题是否足够清楚地说明我的情况，因为我不觉得我可以用一句话来说明。\n我觉得我可以用一句话说清楚，所以我将解释我的立场\n在这里。\n\n这是一个相当普遍的观点。我认为，说 \"不是所有的男人 \"只是\n对 \"所有男人都是垃圾 \"这样的说法的自然反应 ....","locale":"zh"},{"title":"CMV：\"不是所有男人 \"是對試圖將所有男人描繪成暴力的論點的適當迴應","the_new_excerpt":"我不確定我的標題是否足夠清楚地說明我的情況，因爲我不覺得我可以用一句話來說明。\n我覺得我可以用一句話說清楚，所以我將解釋我的立場\n在這裏。\n\n這是一個相當普遍的觀點。我認爲，說 \"不是所有的男人 \"只是\n對 \"所有男人都是垃圾 \"這樣的說法的自然反應 ....","locale":"zh-Hant"}]}},{"id":"RedditPost-7f5ea55c-b817-51b5-9e80-07fdd1c491cf","excerpt":"I'm breaking my argument down into 4 parts, each one of which I am open to\nhaving my viewpoint changed on.\n\n1) Medical community/Government/Society saying \"drugs are bad\" is not an\nargument to be taken as fact on its own.\n\nAs a species, we still know extremely little how the brain works.…","slug":"/reddit/r/changemyview/comments/n270so/cmv_trying_illegal_drugs_should_not_be_taboo/","title":"CMV: Trying illegal drugs should not be taboo advice to give to someone who still has suicidal depression after going through mainstream therapies.","date":"May 01, 2021","dateISO":"2021-05-01T02:29:31.000Z","datetime":"2021-05-01 02:29","tags":["changemyview","reddit"],"image":null,"imageAlt":null,"__typename":"SocialMediaPost","provider":"Reddit","thirdPartyId":"7f5ea55c-b817-51b5-9e80-07fdd1c491cf","url":"https://www.reddit.com/r/changemyview/comments/n270so/cmv_trying_illegal_drugs_should_not_be_taboo/","originalUrl":"https://www.reddit.com/r/changemyview/comments/n270so/cmv_trying_illegal_drugs_should_not_be_taboo/","imageRemote":null,"video":null,"channel":"changemyview","channelUrl":"https://www.reddit.com/r/changemyview","author":"switchgiveaway","authorUrl":"https://www.reddit.com/user/switchgiveaway","authorImageRemote":null,"authorImage":null,"authorSlug":"switchgiveaway","score":234,"views":null,"sharedCount":null,"likeCount":null,"sharedContent":null,"parent":{"localize":[{"title":"CMV: 違法薬物を試すことは、主流の治療法を経てもなお自殺願望のある鬱病患者に与えるタブーなアドバイスではありません。","the_new_excerpt":"私は自分の主張を4つの部分に分けていますが、それぞれの部分については\nそれぞれについて、私の見解を変えることができます。\n\n1) 医学界、政府、社会が「麻薬は悪いものだ」と言っても、それは\nそれだけで事実として受け止めるべき議論ではありません。\n\n人類はまだ、脳の仕組みをほとんど知らないのです....","locale":"ja"},{"title":"CMV：对于经历了主流疗法后仍有自杀倾向的抑郁症患者来说，尝试非法药物不应成为禁忌的建议。","the_new_excerpt":"我把我的论点分成四个部分，每一部分我都愿意接受\n观点的改变。\n\n1) 医学界/政府/社会说 \"毒品是坏东西 \"并不是一个论点。\n1）医学界/政府/社会说 \"毒品是坏的 \"并不是一个可以被视为事实的论点，它本身就是事实。\n\n作为一个物种，我们对大脑的工作原理仍然知之甚少....。","locale":"zh"},{"title":"CMV：對於經歷了主流療法後仍有自殺傾向的抑鬱症患者來說，嘗試非法藥物不應成爲禁忌的建議。","the_new_excerpt":"我把我的論點分成四個部分，每一部分我都願意接受\n觀點的改變。\n\n1) 醫學界/政府/社會說 \"毒品是壞東西 \"並不是一個論點。\n1）醫學界/政府/社會說 \"毒品是壞的 \"並不是一個可以被視爲事實的論點，它本身就是事實。\n\n作爲一個物種，我們對大腦的工作原理仍然知之甚少....。","locale":"zh-Hant"}]}},{"id":"RedditPost-7bc1b7a3-1665-5e31-a201-543625c71f21","excerpt":"My friend mentioned the other day that it is \"doctor recommended\" to buy new\nunderwear every 6-12 months. he claimed it was unhygienic otherwise. I looked it\nup and found that there is some articles and statements that support his claim\nbut when I actually look into it, the reasoning is always…","slug":"/reddit/r/changemyview/comments/n1wejl/cmv_buying_new_underwear_every_6_months_is_a_scam/","title":"CMV: Buying new underwear every 6 months is a scam and has nothing to do with hygiene","date":"May 01, 2021","dateISO":"2021-05-01T01:21:58.000Z","datetime":"2021-05-01 01:21","tags":["changemyview","reddit"],"image":null,"imageAlt":null,"__typename":"SocialMediaPost","provider":"Reddit","thirdPartyId":"7bc1b7a3-1665-5e31-a201-543625c71f21","url":"https://www.reddit.com/r/changemyview/comments/n1wejl/cmv_buying_new_underwear_every_6_months_is_a_scam/","originalUrl":"https://www.reddit.com/r/changemyview/comments/n1wejl/cmv_buying_new_underwear_every_6_months_is_a_scam/","imageRemote":null,"video":null,"channel":"changemyview","channelUrl":"https://www.reddit.com/r/changemyview","author":"BayconStripz","authorUrl":"https://www.reddit.com/user/BayconStripz","authorImageRemote":null,"authorImage":null,"authorSlug":"BayconStripz","score":64,"views":null,"sharedCount":null,"likeCount":null,"sharedContent":null,"parent":{"localize":[{"title":"CMV: 半年ごとに下着を買い替えるのは詐欺であり、衛生面とは関係ありません。","the_new_excerpt":"先日、私の友人が、下着は6～12ヶ月ごとに買い替えることが「医師の推奨」だと言っていました。\nそうしないと不衛生だからだそうです。私はそれを調べました。\n調べてみると、彼の主張を裏付けるような記事や記述がいくつかありました。\nしかし、実際に調べてみると、その理由はいつも...。","locale":"ja"},{"title":"CMV：每6个月买新内衣是个骗局，与卫生无关","the_new_excerpt":"我的朋友有一天提到，\"医生建议 \"每6-12个月买一次新内衣。\n他说否则就不卫生了。我查了一下\n发现有一些文章和声明支持他的说法。\n但当我实际调查时，理由总是......","locale":"zh"},{"title":"CMV：每6個月買新內衣是個騙局，與衛生無關","the_new_excerpt":"我的朋友有一天提到，\"醫生建議 \"每6-12個月買一次新內衣。\n他說否則就不衛生了。我查了一下\n發現有一些文章和聲明支持他的說法。\n但當我實際調查時，理由總是......","locale":"zh-Hant"}]}}]}},"pageContext":{"basePath":"/","pageType":"home","tagsFilter":{"date":{"gt":"2000-12-25T10:54:58.000Z"}},"filter":{"date":{"gt":"2000-12-25T10:54:58.000Z"}},"limit":50,"skip":400,"totalPages":9,"total":404,"currentPage":9,"maxWidth":1024,"maxHeight":512,"siteMetadata":null,"locale":"ja","hrefLang":"ja-JA","originalPath":"/page/9","dateFormat":"YYYY-MM-DD"}},"staticQueryHashes":["1239077767","2744905544","3025052997","3280999885"]}