{"componentChunkName":"component---node-modules-gatsby-theme-buzzing-src-gatsby-theme-timeline-templates-posts-query-js","path":"/zh-Hant/page/10","result":{"data":{"site":{"siteMetadata":{"title":"你可以改变我的想法吗？","author":"Buzzing.cc","description":"用中文浏览Reddit-Change My View的热帖","keywords":["buzzing","改变我的想法","reddit"],"siteUrl":"https://changemyview.buzzing.cc","telegram":"@buzzingcc","iconUrl":"https://changemyview.buzzing.cc/avatar.jpg","defaultSocialImageUrl":null,"social":[{"name":"Change My View","url":"https://www.reddit.com/r/changemyview/","external":true},{"name":"Buzzing","url":"https://www.buzzing.cc/","external":true},{"name":"Buzzing","url":"https://www.buzzing.cc/","external":true}],"menuLinks":[{"name":"每周精选","url":"/issues","external":null}],"disqus":null,"utterances":null}},"tagsGroup":{"group":[{"fieldValue":"changemyview","totalCount":451},{"fieldValue":"reddit","totalCount":451}]},"allBlogPost":{"nodes":[{"id":"RedditPost-5f22cdd9-0fe1-53f4-8582-bf04ddcdae01","excerpt":"This thread is of course about straight men and women in traditional gender\nroles.\n\nThe idea that I, as a man, need to pay double every time I try to get to know\nsomeone better over drinks is not only outdated but is quite honestly confusing\nand frustrating since among women, there is a wide range…","slug":"/reddit/r/changemyview/comments/mhes6z/cmv_the_concept_that_the_man_should_pay_for_the/","title":"CMV: The concept that the man should pay for the woman on dates, particularly the first few, has no place in modern society","date":"April 01, 2021","dateISO":"2021-04-01T02:30:41.000Z","datetime":"2021-04-01 02:30","tags":["changemyview","reddit"],"image":null,"imageAlt":null,"__typename":"SocialMediaPost","provider":"Reddit","thirdPartyId":"5f22cdd9-0fe1-53f4-8582-bf04ddcdae01","url":"https://www.reddit.com/r/changemyview/comments/mhes6z/cmv_the_concept_that_the_man_should_pay_for_the/","originalUrl":"https://www.reddit.com/r/changemyview/comments/mhes6z/cmv_the_concept_that_the_man_should_pay_for_the/","imageRemote":null,"video":null,"channel":"changemyview","channelUrl":"https://www.reddit.com/r/changemyview","author":"-endjamin-","authorUrl":"https://www.reddit.com/user/-endjamin-","authorImageRemote":null,"authorImage":null,"authorSlug":"-endjamin-","score":58,"views":null,"sharedCount":null,"likeCount":null,"sharedContent":null,"parent":{"localize":[{"title":"CMV：在现代社会中，男方应该为女方支付约会费用，尤其是前几次约会的费用，这种观念是不存在的。","the_new_excerpt":"这条线当然是关于传统性别中的直男直女了\n角色。\n\n我作为一个男人，需要付出双倍的代价，每一次我尝试去了解\n酒逢知己千杯少，人逢喜事精神爽\n和挫折，因为在妇女中，有一个广泛的... ...","locale":"zh"},{"title":"CMV：在現代社會中，男方應該爲女方支付約會費用，尤其是前幾次約會的費用，這種觀念是不存在的。","the_new_excerpt":"這條線當然是關於傳統性別中的直男直女了\n角色。\n\n我作爲一個男人，需要付出雙倍的代價，每一次我嘗試去了解\n酒逢知己千杯少，人逢喜事精神爽\n和挫折，因爲在婦女中，有一個廣泛的... ...","locale":"zh-Hant"}]}}]}},"pageContext":{"basePath":"/","pageType":"home","tagsFilter":{"date":{"gt":"2000-12-25T10:54:58.000Z"}},"filter":{"date":{"gt":"2000-12-25T10:54:58.000Z"}},"limit":50,"skip":450,"totalPages":10,"total":451,"currentPage":10,"maxWidth":1024,"maxHeight":512,"siteMetadata":null,"locale":"zh-Hant","hrefLang":"zh-Hant","originalPath":"/page/10","dateFormat":"YYYY-MM-DD"}},"staticQueryHashes":["1239077767","2744905544","3025052997","3280999885"]}