{"componentChunkName":"component---node-modules-gatsby-theme-buzzing-src-gatsby-theme-timeline-templates-posts-query-js","path":"/en/page/8","result":{"data":{"site":{"siteMetadata":{"title":"你可以改变我的想法吗？","author":"Buzzing.cc","description":"用中文浏览Reddit-Change My View的热帖","keywords":["buzzing","改变我的想法","reddit"],"siteUrl":"https://changemyview.buzzing.cc","telegram":"@buzzingcc","iconUrl":"https://changemyview.buzzing.cc/avatar.jpg","defaultSocialImageUrl":null,"social":[{"name":"Change My View","url":"https://www.reddit.com/r/changemyview/","external":true},{"name":"Buzzing","url":"https://www.buzzing.cc/","external":true},{"name":"Buzzing","url":"https://www.buzzing.cc/","external":true}],"menuLinks":[{"name":"每周精选","url":"/issues","external":null}],"disqus":null,"utterances":null}},"tagsGroup":{"group":[{"fieldValue":"changemyview","totalCount":352},{"fieldValue":"reddit","totalCount":352}]},"allBlogPost":{"nodes":[{"id":"RedditPost-7f5ea55c-b817-51b5-9e80-07fdd1c491cf","excerpt":"I'm breaking my argument down into 4 parts, each one of which I am open to\nhaving my viewpoint changed on.\n\n1) Medical community/Government/Society saying \"drugs are bad\" is not an\nargument to be taken as fact on its own.\n\nAs a species, we still know extremely little how the brain works.…","slug":"/reddit/r/changemyview/comments/n270so/cmv_trying_illegal_drugs_should_not_be_taboo/","title":"CMV: Trying illegal drugs should not be taboo advice to give to someone who still has suicidal depression after going through mainstream therapies.","date":"May 01, 2021","dateISO":"2021-05-01T02:29:31.000Z","datetime":"2021-05-01 02:29","tags":["changemyview","reddit"],"image":null,"imageAlt":null,"__typename":"SocialMediaPost","provider":"Reddit","thirdPartyId":"7f5ea55c-b817-51b5-9e80-07fdd1c491cf","url":"https://www.reddit.com/r/changemyview/comments/n270so/cmv_trying_illegal_drugs_should_not_be_taboo/","originalUrl":"https://www.reddit.com/r/changemyview/comments/n270so/cmv_trying_illegal_drugs_should_not_be_taboo/","imageRemote":null,"video":null,"channel":"changemyview","channelUrl":"https://www.reddit.com/r/changemyview","author":"switchgiveaway","authorUrl":"https://www.reddit.com/user/switchgiveaway","authorImageRemote":null,"authorImage":null,"authorSlug":"switchgiveaway","score":234,"views":null,"sharedCount":null,"likeCount":null,"sharedContent":null,"parent":{"localize":[{"title":"CMV: 違法薬物を試すことは、主流の治療法を経てもなお自殺願望のある鬱病患者に与えるタブーなアドバイスではありません。","the_new_excerpt":"私は自分の主張を4つの部分に分けていますが、それぞれの部分については\nそれぞれについて、私の見解を変えることができます。\n\n1) 医学界、政府、社会が「麻薬は悪いものだ」と言っても、それは\nそれだけで事実として受け止めるべき議論ではありません。\n\n人類はまだ、脳の仕組みをほとんど知らないのです....","locale":"ja"},{"title":"CMV：对于经历了主流疗法后仍有自杀倾向的抑郁症患者来说，尝试非法药物不应成为禁忌的建议。","the_new_excerpt":"我把我的论点分成四个部分，每一部分我都愿意接受\n观点的改变。\n\n1) 医学界/政府/社会说 \"毒品是坏东西 \"并不是一个论点。\n1）医学界/政府/社会说 \"毒品是坏的 \"并不是一个可以被视为事实的论点，它本身就是事实。\n\n作为一个物种，我们对大脑的工作原理仍然知之甚少....。","locale":"zh"},{"title":"CMV：對於經歷了主流療法後仍有自殺傾向的抑鬱症患者來說，嘗試非法藥物不應成爲禁忌的建議。","the_new_excerpt":"我把我的論點分成四個部分，每一部分我都願意接受\n觀點的改變。\n\n1) 醫學界/政府/社會說 \"毒品是壞東西 \"並不是一個論點。\n1）醫學界/政府/社會說 \"毒品是壞的 \"並不是一個可以被視爲事實的論點，它本身就是事實。\n\n作爲一個物種，我們對大腦的工作原理仍然知之甚少....。","locale":"zh-Hant"}]}},{"id":"RedditPost-7bc1b7a3-1665-5e31-a201-543625c71f21","excerpt":"My friend mentioned the other day that it is \"doctor recommended\" to buy new\nunderwear every 6-12 months. he claimed it was unhygienic otherwise. I looked it\nup and found that there is some articles and statements that support his claim\nbut when I actually look into it, the reasoning is always…","slug":"/reddit/r/changemyview/comments/n1wejl/cmv_buying_new_underwear_every_6_months_is_a_scam/","title":"CMV: Buying new underwear every 6 months is a scam and has nothing to do with hygiene","date":"May 01, 2021","dateISO":"2021-05-01T01:21:58.000Z","datetime":"2021-05-01 01:21","tags":["changemyview","reddit"],"image":null,"imageAlt":null,"__typename":"SocialMediaPost","provider":"Reddit","thirdPartyId":"7bc1b7a3-1665-5e31-a201-543625c71f21","url":"https://www.reddit.com/r/changemyview/comments/n1wejl/cmv_buying_new_underwear_every_6_months_is_a_scam/","originalUrl":"https://www.reddit.com/r/changemyview/comments/n1wejl/cmv_buying_new_underwear_every_6_months_is_a_scam/","imageRemote":null,"video":null,"channel":"changemyview","channelUrl":"https://www.reddit.com/r/changemyview","author":"BayconStripz","authorUrl":"https://www.reddit.com/user/BayconStripz","authorImageRemote":null,"authorImage":null,"authorSlug":"BayconStripz","score":64,"views":null,"sharedCount":null,"likeCount":null,"sharedContent":null,"parent":{"localize":[{"title":"CMV: 半年ごとに下着を買い替えるのは詐欺であり、衛生面とは関係ありません。","the_new_excerpt":"先日、私の友人が、下着は6～12ヶ月ごとに買い替えることが「医師の推奨」だと言っていました。\nそうしないと不衛生だからだそうです。私はそれを調べました。\n調べてみると、彼の主張を裏付けるような記事や記述がいくつかありました。\nしかし、実際に調べてみると、その理由はいつも...。","locale":"ja"},{"title":"CMV：每6个月买新内衣是个骗局，与卫生无关","the_new_excerpt":"我的朋友有一天提到，\"医生建议 \"每6-12个月买一次新内衣。\n他说否则就不卫生了。我查了一下\n发现有一些文章和声明支持他的说法。\n但当我实际调查时，理由总是......","locale":"zh"},{"title":"CMV：每6個月買新內衣是個騙局，與衛生無關","the_new_excerpt":"我的朋友有一天提到，\"醫生建議 \"每6-12個月買一次新內衣。\n他說否則就不衛生了。我查了一下\n發現有一些文章和聲明支持他的說法。\n但當我實際調查時，理由總是......","locale":"zh-Hant"}]}}]}},"pageContext":{"basePath":"/","pageType":"home","tagsFilter":{"date":{"gt":"2000-12-25T10:54:58.000Z"}},"filter":{"date":{"gt":"2000-12-25T10:54:58.000Z"}},"limit":50,"skip":350,"totalPages":8,"total":352,"currentPage":8,"maxWidth":1024,"maxHeight":512,"siteMetadata":null,"locale":"en","hrefLang":"en-US","originalPath":"/page/8","dateFormat":"MM/DD/YYYY"}},"staticQueryHashes":["1239077767","2744905544","3025052997","3280999885"]}