{"componentChunkName":"component---node-modules-gatsby-theme-buzzing-src-gatsby-theme-timeline-templates-posts-query-js","path":"/en/page/36","result":{"data":{"site":{"siteMetadata":{"title":"你可以改变我的想法吗？","description":"用中文浏览Reddit-Change My View的热帖","social":[{"name":"Change My View","url":"https://www.reddit.com/r/changemyview/","external":true,"prefetch":null},{"name":"Buzzing","url":"https://www.buzzing.cc/","external":true,"prefetch":null},{"name":"Buzzing","url":"https://www.buzzing.cc/","external":true,"prefetch":null}],"menuLinks":[{"name":"每周精选","url":"/issues","external":null,"prefetch":null}],"localize":[{"locale":"en","title":"Buzzing on Change My View","description":"See what's buzzing on Reddit Change My View Subreddit in your native language","social":{"name":null,"url":null,"external":null,"prefetch":null},"menuLinks":[{"name":"Weekly Selection","url":"/en/issues","external":null,"prefetch":null}]},{"locale":"zh-Hant","title":"你可以改變我的想法嗎？","description":"用中文瀏覽Reddit-Change My View的熱帖","social":{"name":null,"url":null,"external":null,"prefetch":null},"menuLinks":[{"name":"每週精選","url":"/zh-Hant/issues","external":null,"prefetch":null}]},{"locale":"ja","title":"気が変わってもらえますか？","description":"人気のReddit気が変わってもらえますか記事を日本語で閲覧","social":null,"menuLinks":[]}]}},"tagsGroup":{"group":[{"fieldValue":"Design Tools","totalCount":1},{"fieldValue":"ProductHunt","totalCount":1},{"fieldValue":"Youtube","totalCount":1},{"fieldValue":"changemyview","totalCount":873},{"fieldValue":"dankmemes","totalCount":1},{"fieldValue":"reddit","totalCount":874}]},"allBlogPost":{"nodes":[{"id":"PhPost-9b8fe351-49c1-5cc2-9a3e-266285ceb2b5","excerpt":"A new release from the Artify crew featuring 5000+ unique illustrations available for download in high quality PNG files as well as vector sources, there are over 70 illustration styles from high quality 3D styles to minimalistic and abstract lines!","slug":"/ph/1","title":"Artify Illustrations - Search and download more than 5000 vector illustrations","date":"December 18, 1970","dateISO":"1970-12-18T08:47:54.485Z","datetime":"1970-12-18 08:47","tags":["Design Tools","ProductHunt"],"image":null,"imageAlt":null,"__typename":"SocialMediaPost","provider":"Product Hunt","thirdPartyId":"9b8fe351-49c1-5cc2-9a3e-266285ceb2b5","url":"https://www.producthunt.com/posts/artify-illustrations?utm_campaign=producthunt-api&utm_medium=api-v2&utm_source=Application%3A+Buzzing+%28ID%3A+41381%29","originalUrl":"https://www.producthunt.com/r/2594b1797ea1f3?utm_campaign=producthunt-api&utm_medium=api-v2&utm_source=Application%3A+Buzzing+%28ID%3A+41381%29","imageRemote":"https://ph-files.imgix.net/16c84ca9-95b7-46bd-b70e-ee3ec5c717d2.png?auto=format&fit=crop","video":null,"channel":null,"channelUrl":null,"author":"Fajar Siddiq","authorUrl":"https://www.producthunt.com/@fajarsiddiq?utm_campaign=producthunt-api&utm_medium=api-v2&utm_source=Application%3A+Buzzing+%28ID%3A+41381%29","authorImage":null,"authorSlug":null,"score":461,"views":null,"sharedCount":null,"likeCount":null,"sharedContent":null,"parent":{"localize":[{"description":"虚拟现实何时起飞？100美元的赌注","tagline":"tag","locale":"zh"},{"description":"虛擬現實何時起飛？100美元的賭注","tagline":"tag","locale":"zh-Hant"}]}},{"id":"RedditPost-4ca87448-e499-5480-ac90-9fabcbe5eed6","excerpt":"","slug":"/reddit/r/dankmemes/comments/kc0vb6/i_tried_my_best/","title":"I tried my best","date":"January 01, 1970","dateISO":"1970-01-01T00:00:01.000Z","datetime":"1970-01-01 00:00","tags":["dankmemes","reddit"],"image":null,"imageAlt":null,"__typename":"SocialMediaPost","provider":"Reddit","thirdPartyId":"4ca87448-e499-5480-ac90-9fabcbe5eed6","url":"https://www.reddit.com/r/dankmemes/comments/kc0vb6/i_tried_my_best/","originalUrl":"https://www.reddit.com/r/dankmemes/comments/kc0vb6/i_tried_my_best/","imageRemote":null,"video":{"url":"https://preview.redd.it/tmioy3ppqu461.gif?format=mp4&s=eee315f2afbf0b103ca25cb56dab4ca7ca9c7f77","embed":null,"width":530,"height":478},"channel":"dankmemes","channelUrl":"https://www.reddit.com/r/dankmemes","author":"tig02345","authorUrl":"https://www.reddit.com/user/tig02345","authorImage":null,"authorSlug":"tig02345","score":93756,"views":null,"sharedCount":null,"likeCount":null,"sharedContent":null,"parent":{"localize":[{"title":"我尽力了","the_new_excerpt":"test","locale":"zh"},{"title":"我盡力了","the_new_excerpt":"test","locale":"zh-Hant"}]}}]}},"pageContext":{"basePath":"/","pageType":"home","tagsFilter":{"id":{"glob":"!*Post-1"}},"filter":{"id":{"glob":"!*Post-1"}},"limit":25,"skip":875,"totalPages":36,"total":877,"currentPage":36,"maxWidth":1024,"maxHeight":512,"locale":"en","hrefLang":"en-US","originalPath":"/page/36","dateFormat":"MM/DD/YYYY"}},"staticQueryHashes":["1239077767","2506312863","2744905544","3025052997","3280999885","3948070931","68699025"]}