{"componentChunkName":"component---node-modules-gatsby-theme-buzzing-src-gatsby-theme-timeline-templates-posts-query-js","path":"/ja/page/10","result":{"data":{"site":{"siteMetadata":{"title":"你可以改变我的想法吗？","author":"Buzzing.cc","description":"用中文浏览Reddit-Change My View的热帖","keywords":["buzzing","改变我的想法","reddit"],"siteUrl":"https://changemyview.buzzing.cc","telegram":"@buzzingcc","iconUrl":"https://changemyview.buzzing.cc/avatar.jpg","defaultSocialImageUrl":null,"social":[{"name":"Change My View","url":"https://www.reddit.com/r/changemyview/","external":true},{"name":"Buzzing","url":"https://www.buzzing.cc/","external":true},{"name":"Buzzing","url":"https://www.buzzing.cc/","external":true}],"menuLinks":[{"name":"每周精选","url":"/issues","external":null}],"disqus":null,"utterances":null}},"tagsGroup":{"group":[{"fieldValue":"changemyview","totalCount":453},{"fieldValue":"reddit","totalCount":453}]},"allBlogPost":{"nodes":[{"id":"RedditPost-4bf3c751-5975-57d3-a1ba-2e5e7dbc4c57","excerpt":"I understand pro-life arguments as to why it should be that women must have the\nbaby, but if I'm being 100% honest, the more I breakdown those reasons the more\nit seems like they are just trying to force life into the world and punish those\nwho conceived it irresponsibly.\n\nPro-lifers arguments…","slug":"/reddit/r/changemyview/comments/mhq9vf/cmv_prochoice_and_allowing_women_to_abort_their/","title":"CMV: Pro-Choice and allowing women to abort their babies is a win-win situation all around, and I really don't see why it's so hotly debated over.","date":"April 01, 2021","dateISO":"2021-04-01T10:30:31.000Z","datetime":"2021-04-01 10:30","tags":["changemyview","reddit"],"image":null,"imageAlt":null,"__typename":"SocialMediaPost","provider":"Reddit","thirdPartyId":"4bf3c751-5975-57d3-a1ba-2e5e7dbc4c57","url":"https://www.reddit.com/r/changemyview/comments/mhq9vf/cmv_prochoice_and_allowing_women_to_abort_their/","originalUrl":"https://www.reddit.com/r/changemyview/comments/mhq9vf/cmv_prochoice_and_allowing_women_to_abort_their/","imageRemote":null,"video":null,"channel":"changemyview","channelUrl":"https://www.reddit.com/r/changemyview","author":"Ass___Master___69","authorUrl":"https://www.reddit.com/user/Ass___Master___69","authorImageRemote":null,"authorImage":null,"authorSlug":"Ass___Master___69","score":59,"views":null,"sharedCount":null,"likeCount":null,"sharedContent":null,"parent":{"localize":[{"title":"CMV：支持选择和允许女性堕胎是一个双赢的局面，我真的不明白为什么会有这么激烈的争论。","the_new_excerpt":"我理解支持生命的论点，为什么女性必须拥有生命的权利。\n宝贝，但如果我是100％的诚实， 我越是细分这些原因越是\n似乎他们只是想把生命强加到这个世界上，并惩罚那些人。\n谁不负责任地设想它。\n\n亲历者的论点...","locale":"zh"},{"title":"CMV：支持選擇和允許女性墮胎是一個雙贏的局面，我真的不明白爲什麼會有這麼激烈的爭論。","the_new_excerpt":"我理解支持生命的論點，爲什麼女性必須擁有生命的權利。\n寶貝，但如果我是100％的誠實， 我越是細分這些原因越是\n似乎他們只是想把生命強加到這個世界上，並懲罰那些人。\n誰不負責任地設想它。\n\n親歷者的論點...","locale":"zh-Hant"},{"title":"CMV: プロチョイスとは、女性が赤ちゃんを中絶することを認めることであり、すべての面でWin-Winの関係であり、これほどまでに議論される理由がわからない。","the_new_excerpt":"私はプロライフの主張を理解していますが、なぜ女性には\nしかし、100％正直に言うと、その理由を分解すればするほど、生命を無理矢理奪おうとしているとしか思えないのです。\nその理由を分析すればするほど、彼らは命を強引に世に送り出し、無責任に妊娠した人を罰しているだけのように思えてきます。\n罰しようとしているとしか思えません。\n\nプロライフ派の主張...","locale":"ja-JA"},{"title":"CMV: プロチョイスとは、女性が赤ちゃんを中絶することを認めることであり、すべての面でWin-Winの関係であり、これほどまでに議論される理由がわからない。","the_new_excerpt":"私はプロライフの主張を理解していますが、なぜ女性には\nしかし、100％正直に言うと、その理由を分解すればするほど、生命を無理矢理奪おうとしているとしか思えないのです。\nその理由を分析すればするほど、彼らは命を強引に世に送り出し、無責任に妊娠した人を罰しているだけのように思えてきます。\n罰しようとしているとしか思えません。\n\nプロライフ派の主張...","locale":"ja"}]}},{"id":"RedditPost-d784c36d-e72d-5730-99cf-8a8b07c9b4f1","excerpt":"I’m coming from a background of having worked for three different food service\ncompanies- a mid sized franchise brand whose business model was largely based\naround delivery, a larger franchise that was based around carry out/ delivery,\nand a locally owned company which operated similarly to the…","slug":"/reddit/r/changemyview/comments/mhlcu1/cmv_food_delivery_apps_are_bad_for_everyone_but/","title":"CMV: Food delivery apps are bad for everyone but the parent company","date":"April 01, 2021","dateISO":"2021-04-01T08:31:57.000Z","datetime":"2021-04-01 08:31","tags":["changemyview","reddit"],"image":null,"imageAlt":null,"__typename":"SocialMediaPost","provider":"Reddit","thirdPartyId":"d784c36d-e72d-5730-99cf-8a8b07c9b4f1","url":"https://www.reddit.com/r/changemyview/comments/mhlcu1/cmv_food_delivery_apps_are_bad_for_everyone_but/","originalUrl":"https://www.reddit.com/r/changemyview/comments/mhlcu1/cmv_food_delivery_apps_are_bad_for_everyone_but/","imageRemote":null,"video":null,"channel":"changemyview","channelUrl":"https://www.reddit.com/r/changemyview","author":"vertazontal","authorUrl":"https://www.reddit.com/user/vertazontal","authorImageRemote":null,"authorImage":null,"authorSlug":"vertazontal","score":52,"views":null,"sharedCount":null,"likeCount":null,"sharedContent":null,"parent":{"localize":[{"title":"CMV：送餐应用对所有人都不好，但对母公司不好","the_new_excerpt":"我的背景是在三家不同的餐饮公司工作过。\n公司--一个中等规模的特许经营品牌，其业务模式主要基于\n围绕着送货，一个更大的特许经营权，是围绕着外卖/送货。\n和当地一家经营类似的公司。","locale":"zh"},{"title":"CMV：送餐應用對所有人都不好，但對母公司不好","the_new_excerpt":"我的背景是在三家不同的餐飲公司工作過。\n公司--一箇中等規模的特許經營品牌，其業務模式主要基於\n圍繞着送貨，一個更大的特許經營權，是圍繞着外賣/送貨。\n和當地一家經營類似的公司。","locale":"zh-Hant"},{"title":"CMV: フードデリバリーアプリは、親会社以外のすべての人に悪影響を及ぼす","the_new_excerpt":"私は、3つの異なるフードサービス会社で働いた経験があります。\n中規模のフランチャイズブランドで、そのビジネスモデルは主にデリバリーに基づいていました。\n宅配を中心としたビジネスモデルを持つ中規模のフランチャイズブランド、テイクアウト／宅配を中心とした大規模なフランチャイズ、そして地元で経営されている会社の3つのフードサービス会社で働いた経験があります。\nそして、地元で経営されている会社では...。","locale":"ja-JA"},{"title":"CMV: フードデリバリーアプリは、親会社以外のすべての人に悪影響を及ぼす","the_new_excerpt":"私は、3つの異なるフードサービス会社で働いた経験があります。\n中規模のフランチャイズブランドで、そのビジネスモデルは主にデリバリーに基づいていました。\n宅配を中心としたビジネスモデルを持つ中規模のフランチャイズブランド、テイクアウト／宅配を中心とした大規模なフランチャイズ、そして地元で経営されている会社の3つのフードサービス会社で働いた経験があります。\nそして、地元で経営されている会社では...。","locale":"ja"}]}},{"id":"RedditPost-5f22cdd9-0fe1-53f4-8582-bf04ddcdae01","excerpt":"This thread is of course about straight men and women in traditional gender\nroles.\n\nThe idea that I, as a man, need to pay double every time I try to get to know\nsomeone better over drinks is not only outdated but is quite honestly confusing\nand frustrating since among women, there is a wide range…","slug":"/reddit/r/changemyview/comments/mhes6z/cmv_the_concept_that_the_man_should_pay_for_the/","title":"CMV: The concept that the man should pay for the woman on dates, particularly the first few, has no place in modern society","date":"April 01, 2021","dateISO":"2021-04-01T02:30:41.000Z","datetime":"2021-04-01 02:30","tags":["changemyview","reddit"],"image":null,"imageAlt":null,"__typename":"SocialMediaPost","provider":"Reddit","thirdPartyId":"5f22cdd9-0fe1-53f4-8582-bf04ddcdae01","url":"https://www.reddit.com/r/changemyview/comments/mhes6z/cmv_the_concept_that_the_man_should_pay_for_the/","originalUrl":"https://www.reddit.com/r/changemyview/comments/mhes6z/cmv_the_concept_that_the_man_should_pay_for_the/","imageRemote":null,"video":null,"channel":"changemyview","channelUrl":"https://www.reddit.com/r/changemyview","author":"-endjamin-","authorUrl":"https://www.reddit.com/user/-endjamin-","authorImageRemote":null,"authorImage":null,"authorSlug":"-endjamin-","score":58,"views":null,"sharedCount":null,"likeCount":null,"sharedContent":null,"parent":{"localize":[{"title":"CMV：在现代社会中，男方应该为女方支付约会费用，尤其是前几次约会的费用，这种观念是不存在的。","the_new_excerpt":"这条线当然是关于传统性别中的直男直女了\n角色。\n\n我作为一个男人，需要付出双倍的代价，每一次我尝试去了解\n酒逢知己千杯少，人逢喜事精神爽\n和挫折，因为在妇女中，有一个广泛的... ...","locale":"zh"},{"title":"CMV：在現代社會中，男方應該爲女方支付約會費用，尤其是前幾次約會的費用，這種觀念是不存在的。","the_new_excerpt":"這條線當然是關於傳統性別中的直男直女了\n角色。\n\n我作爲一個男人，需要付出雙倍的代價，每一次我嘗試去了解\n酒逢知己千杯少，人逢喜事精神爽\n和挫折，因爲在婦女中，有一個廣泛的... ...","locale":"zh-Hant"}]}}]}},"pageContext":{"basePath":"/","pageType":"home","tagsFilter":{"date":{"gt":"2000-12-25T10:54:58.000Z"}},"filter":{"date":{"gt":"2000-12-25T10:54:58.000Z"}},"limit":50,"skip":450,"totalPages":10,"total":453,"currentPage":10,"maxWidth":1024,"maxHeight":512,"siteMetadata":null,"locale":"ja","hrefLang":"ja-JA","originalPath":"/page/10","dateFormat":"YYYY-MM-DD"}},"staticQueryHashes":["1239077767","2744905544","3025052997","3280999885"]}